homework_6
…
##  3 "Hele landet"            "5.822.763"  "4.327.018"                "74,3"      
##  4 ""                       ""           ""                         ""          
##  5 "Københavns Stift"       "833.711"    "470.401"                  "56,4"      
##  6 "Helsingør Stift"        "1.012.312"  "679.276"                  "67,1"      
##  7 "Roskilde Stift"         "735.532"    "574.372"                  "78,1"      
##  8 "Lolland-Falsters Stift" "101.827"    "82.119"                   "80,6"      
##  9 "Fyens Stift"            "498.506"    "393.961"                  "79,0"      
## 10 "Aalborg Stift"          "529.469"    "437.982"                  "82,7"      
## 11 "Viborg Stift"           "417.470"    "350.381"                  "83,9"      
## 12 "Århus Stift"            "859.830"    "661.784"                  "77,0"      
## 13 "Ribe Stift"             "356.022"    "295.986"                  "83,1"      
## 14 "Haderslev Stift"        "478.084"    "380.756"                  "79,6"      
## 
## [[2]]
## # A tibble: 32 × 12
##    X1          X2    X3    X4    X5    X6    X7    X8    X9    X10   X11   X12  
##    <chr>       <chr> <chr> <chr> <chr> <chr> <chr> <chr> <chr> <chr> <chr> <chr>
##  1 "Medlems- … Hele… "Køb… "Hel… "Ros… "Lol… Fyen  "Aal… "Vi-… Århus Ribe  "Had…
##  2 "2020"      74,3  "56,… "67,… "78,… "80,… 79,0  "82,… "83,… 77,0  83,1  "79,…
##  3 "2019"      74,7  "56,… "67,… "78,… "80,… 79,2  "83,… "84,… 77,4  83,5  "80,…
##  4 "2018"      75,3  "57,… "68,… "79,… "81,… 79,8  "83,… "84,… 77,8  84,0  "80,…
##  5 "2017"      75,9  "58,… "69,… "79,… "81,… 80,3  "83,… "85,… 78,5  84,5  "81,…
##  6 "2016"      76,9  "59,… "70,… "80,… "82,… 81,1  "84,… "86,… 79,5  85,3  "82,…
##  7 "2015"      77,8  "60,… "71,… "81,… "83,… 81,9  "85,… "86,… 80,2  86,2  "82,…
##  8 "2014"      78,4  "60,… "72,… "81,… "83,… 82,6  "85,… "87,… 80,7  86,8  "83,…
##  9 "2013"      79,1  "61,… "72,… "82,… "84,… 83,2  "86,… "87,… 81,3  87,4  "84,…
## 10 "2012"      79,8  "62,… "73,… "82,… "84,… 83,8  "87,… "88,… 82,0  87,9  "84,…
## # … with 22 more rows
…
